﻿1688.com,opt28
32red.com,opt97
Adidas & Nike,opt86
Airbnb,opt46
Alibaba | Taobao,opt61
Amazon,opt44
AOL,opt10
Auto.RU,opt38
Badoo,opt56
Band.us,opt118
BetFair,opt25
Blizzard,opt78
Bolt,opt81
BurgerKing,opt3
Careem,opt89
CDKeys.com,opt39
CityMobil,opt76
CoinBase,opt112
CONTACT,opt51
Craigslist,opt26
Dent,opt99
DiDi,opt92
Discord,opt45
Dodopizza + PapaJohns,opt27
DoorDash,opt40
Drom.RU,opt32
EasyPay,opt21
Facebook,opt2
FastMail,opt43
Fiverr,opt6
G2A.COM,opt68
Gameflip,opt77
GetTaxi,opt35
Glovo | Raketa,opt108
GMail, YTube,opt1
GrabTaxi,opt30
Grailed,opt420
Grindr,opt110
iCard,opt103
IMO,opt111
Instagram,opt16
JD.com,opt94
Kakaotalk,opt71
Lastpass,opt80
Lazada,opt60
Line Messenger,opt37
LinkedIn,opt8
LiveScore,opt42
LocalBitcoins,opt105
Locanto.com,opt114
Lyft,opt75
Mail.RU  (без гарантии),opt33
Mail.ru Group,opt4
Mamba,opt100
MeetMe,opt17
MiChat,opt96
Microsoft,opt15
Microsoft Office 365,opt7
MoneyRawr,opt22
MrSpeedy,opt47
MTS Cashback,opt48
Naver,opt73
Neteller,opt116
Netflix,opt101
OfferUp,opt113
OlaCabs,opt95
OLX + goods.ru,opt70
Onrealt.ru,opt0
Oracle Cloud,opt115
Paddy Power,opt109
PayPal + Ebay,opt83
POF.com,opt84
Prom.UA,opt107
Proton Mail,opt57
Rambler,opt53
Skout,opt49
Skrill,opt117
Snapchat,opt90
Sneakersnstuff,opt119
Steam,opt58
Streetbees,opt98
Suomi24,opt91
TAN (micropayment),opt55
Tango,opt82
Telegram,opt29
Tencent QQ,opt34
Ticketmaster,opt52
TikTok,opt104
Tinder,opt9
Twilio,opt66
Twitter,opt41
Uber,opt72
Venmo,opt85
Viber,opt11
WebMoney&ENUM,opt24
WeChat,opt67
Weebly,opt54
Weebly 2,opt901
WhatsAPP,opt20
Yahoo,opt65
Yalla.live,opt88
Zoho,opt93
Авито,opt59
ВКонтакте (без гарантии),opt69
Друг Вокруг,opt31
Любой другой (без гарантии),opt19
Магнит,opt106
Одноклассники (без гарантии),opt5
Пятерочка,opt102
Такси Максим,opt74
Фотострана,opt13
Юла (без гарантии),opt14
Яндекс,opt23